{
  "project_info": {
    "project_number": "604849829791",
    "project_id": "firebase-aarhus-2017"
  },
  "client": [
    {
      "client_info": {
        "mobilesdk_app_id": "1:604849829791:android:086703474cb09af6",
        "android_client_info": {
          "package_name": "events.aarhus2017"
        }
      },
      "oauth_client": [],
      "api_key": [
        {
          "current_key": "AIzaSyBc3F20yXj6N3RmfbqOy1mm0TlJRnm5y80"
        }
      ],
      "services": {
        "analytics_service": {
          "status": 2,
          "analytics_property": {
            "tracking_id": "UA-89979551-1"
          }
        },
        "appinvite_service": {
          "status": 1,
          "other_platform_oauth_client": []
        },
        "ads_service": {
          "status": 1
        }
      }
    }
  ],
  "configuration_version": "1"
}